[{
  "id": 1,
  "first_name": "Rodrick",
  "last_name": "Mapston",
  "email": "rmapston0@admin.ch",
  "gender": "Agender",
  "website": "http://alibaba.com/dapibus/augue.js?congue=pellentesque&diam=ultrices&id=phasellus&ornare=id&imperdiet=sapien&sapien=in&urna=sapien&pretium=iaculis&nisl=congue&ut=vivamus&volutpat=metus&sapien=arcu&arcu=adipiscing&sed=molestie&augue=hendrerit&aliquam=at&erat=vulputate&volutpat=vitae&in=nisl&congue=aenean&etiam=lectus&justo=pellentesque&etiam=eget&pretium=nunc&iaculis=donec&justo=quis&in=orci&hac=eget&habitasse=orci&platea=vehicula&dictumst=condimentum&etiam=curabitur&faucibus=in&cursus=libero&urna=ut&ut=massa&tellus=volutpat&nulla=convallis&ut=morbi&erat=odio&id=odio&mauris=elementum&vulputate=eu&elementum=interdum&nullam=eu&varius=tincidunt&nulla=in&facilisi=leo&cras=maecenas&non=pulvinar&velit=lobortis&nec=est&nisi=phasellus&vulputate=sit&nonummy=amet&maecenas=erat&tincidunt=nulla&lacus=tempus",
  "phone": "846-601-0982"
}, {
  "id": 2,
  "first_name": "Markos",
  "last_name": "Willoughby",
  "email": "mwilloughby1@samsung.com",
  "gender": "Genderqueer",
  "website": "https://theglobeandmail.com/scelerisque/mauris/sit/amet/eros/suspendisse/accumsan.png?ipsum=vitae&integer=mattis&a=nibh&nibh=ligula&in=nec&quis=sem&justo=duis&maecenas=aliquam&rhoncus=convallis&aliquam=nunc&lacus=proin&morbi=at&quis=turpis&tortor=a&id=pede&nulla=posuere&ultrices=nonummy&aliquet=integer&maecenas=non&leo=velit&odio=donec&condimentum=diam&id=neque&luctus=vestibulum&nec=eget",
  "phone": "248-472-2967"
}, {
  "id": 3,
  "first_name": "Worth",
  "last_name": "Hawkins",
  "email": "whawkins2@domainmarket.com",
  "gender": "Non-binary",
  "website": "https://yolasite.com/odio.js?aliquam=diam&non=in&mauris=magna&morbi=bibendum&non=imperdiet&lectus=nullam&aliquam=orci&sit=pede&amet=venenatis&diam=non&in=sodales&magna=sed&bibendum=tincidunt&imperdiet=eu&nullam=felis&orci=fusce&pede=posuere&venenatis=felis&non=sed&sodales=lacus&sed=morbi&tincidunt=sem&eu=mauris&felis=laoreet&fusce=ut&posuere=rhoncus&felis=aliquet&sed=pulvinar&lacus=sed&morbi=nisl&sem=nunc&mauris=rhoncus&laoreet=dui&ut=vel&rhoncus=sem&aliquet=sed&pulvinar=sagittis&sed=nam&nisl=congue&nunc=risus&rhoncus=semper&dui=porta&vel=volutpat&sem=quam&sed=pede&sagittis=lobortis&nam=ligula&congue=sit&risus=amet&semper=eleifend&porta=pede&volutpat=libero&quam=quis&pede=orci&lobortis=nullam&ligula=molestie&sit=nibh&amet=in&eleifend=lectus&pede=pellentesque&libero=at&quis=nulla&orci=suspendisse&nullam=potenti&molestie=cras&nibh=in&in=purus&lectus=eu&pellentesque=magna&at=vulputate&nulla=luctus&suspendisse=cum&potenti=sociis&cras=natoque&in=penatibus&purus=et&eu=magnis&magna=dis&vulputate=parturient&luctus=montes&cum=nascetur&sociis=ridiculus&natoque=mus&penatibus=vivamus&et=vestibulum&magnis=sagittis&dis=sapien",
  "phone": "962-627-1749"
}, {
  "id": 4,
  "first_name": "Niki",
  "last_name": "Sorby",
  "email": "nsorby3@cocolog-nifty.com",
  "gender": "Genderqueer",
  "website": "http://privacy.gov.au/cras.html?tristique=non&fusce=sodales&congue=sed&diam=tincidunt&id=eu&ornare=felis&imperdiet=fusce&sapien=posuere&urna=felis&pretium=sed&nisl=lacus&ut=morbi&volutpat=sem&sapien=mauris&arcu=laoreet&sed=ut&augue=rhoncus&aliquam=aliquet&erat=pulvinar&volutpat=sed&in=nisl&congue=nunc&etiam=rhoncus&justo=dui&etiam=vel&pretium=sem&iaculis=sed&justo=sagittis&in=nam&hac=congue&habitasse=risus&platea=semper",
  "phone": "641-629-3053"
}, {
  "id": 5,
  "first_name": "Martie",
  "last_name": "Iacovo",
  "email": "miacovo4@desdev.cn",
  "gender": "Male",
  "website": "https://goo.ne.jp/semper/est/quam/pharetra/magna/ac.aspx?lorem=quisque&ipsum=ut&dolor=erat&sit=curabitur&amet=gravida&consectetuer=nisi&adipiscing=at&elit=nibh&proin=in&risus=hac&praesent=habitasse&lectus=platea&vestibulum=dictumst&quam=aliquam&sapien=augue&varius=quam&ut=sollicitudin&blandit=vitae&non=consectetuer&interdum=eget&in=rutrum&ante=at&vestibulum=lorem&ante=integer&ipsum=tincidunt&primis=ante&in=vel&faucibus=ipsum&orci=praesent&luctus=blandit&et=lacinia&ultrices=erat&posuere=vestibulum&cubilia=sed&curae=magna&duis=at&faucibus=nunc&accumsan=commodo&odio=placerat&curabitur=praesent&convallis=blandit&duis=nam&consequat=nulla&dui=integer&nec=pede&nisi=justo&volutpat=lacinia&eleifend=eget&donec=tincidunt&ut=eget&dolor=tempus&morbi=vel&vel=pede&lectus=morbi&in=porttitor&quam=lorem&fringilla=id&rhoncus=ligula&mauris=suspendisse",
  "phone": "219-665-2681"
}, {
  "id": 6,
  "first_name": "Wayland",
  "last_name": "McEvay",
  "email": "wmcevay5@sogou.com",
  "gender": "Genderfluid",
  "website": "https://si.edu/diam/cras/pellentesque/volutpat/dui/maecenas.html?nec=pellentesque&euismod=volutpat&scelerisque=dui&quam=maecenas&turpis=tristique&adipiscing=est&lorem=et&vitae=tempus&mattis=semper&nibh=est&ligula=quam&nec=pharetra&sem=magna&duis=ac&aliquam=consequat&convallis=metus&nunc=sapien&proin=ut&at=nunc&turpis=vestibulum&a=ante&pede=ipsum&posuere=primis&nonummy=in&integer=faucibus&non=orci&velit=luctus&donec=et&diam=ultrices&neque=posuere&vestibulum=cubilia&eget=curae&vulputate=mauris&ut=viverra&ultrices=diam&vel=vitae&augue=quam&vestibulum=suspendisse&ante=potenti&ipsum=nullam&primis=porttitor&in=lacus&faucibus=at&orci=turpis&luctus=donec&et=posuere&ultrices=metus&posuere=vitae&cubilia=ipsum&curae=aliquam&donec=non&pharetra=mauris&magna=morbi&vestibulum=non&aliquet=lectus&ultrices=aliquam&erat=sit&tortor=amet&sollicitudin=diam&mi=in&sit=magna&amet=bibendum&lobortis=imperdiet&sapien=nullam&sapien=orci&non=pede&mi=venenatis&integer=non&ac=sodales&neque=sed&duis=tincidunt&bibendum=eu&morbi=felis&non=fusce&quam=posuere&nec=felis&dui=sed&luctus=lacus&rutrum=morbi&nulla=sem&tellus=mauris&in=laoreet&sagittis=ut&dui=rhoncus&vel=aliquet&nisl=pulvinar&duis=sed&ac=nisl&nibh=nunc&fusce=rhoncus&lacus=dui",
  "phone": "799-393-9388"
}, {
  "id": 7,
  "first_name": "Costa",
  "last_name": "Delong",
  "email": "cdelong6@nature.com",
  "gender": "Agender",
  "website": "https://salon.com/rhoncus/dui/vel/sem.png?sapien=nisl&placerat=duis&ante=ac&nulla=nibh&justo=fusce&aliquam=lacus&quis=purus&turpis=aliquet&eget=at&elit=feugiat&sodales=non&scelerisque=pretium&mauris=quis&sit=lectus&amet=suspendisse&eros=potenti&suspendisse=in&accumsan=eleifend&tortor=quam&quis=a&turpis=odio&sed=in&ante=hac",
  "phone": "845-345-5058"
}, {
  "id": 8,
  "first_name": "Genna",
  "last_name": "Peskett",
  "email": "gpeskett7@state.tx.us",
  "gender": "Male",
  "website": "http://networkadvertising.org/vel/augue/vestibulum/rutrum/rutrum/neque/aenean.jpg?libero=eu&convallis=orci&eget=mauris&eleifend=lacinia&luctus=sapien&ultricies=quis&eu=libero&nibh=nullam&quisque=sit&id=amet&justo=turpis&sit=elementum&amet=ligula&sapien=vehicula&dignissim=consequat&vestibulum=morbi&vestibulum=a&ante=ipsum&ipsum=integer&primis=a&in=nibh&faucibus=in&orci=quis&luctus=justo&et=maecenas&ultrices=rhoncus&posuere=aliquam&cubilia=lacus&curae=morbi&nulla=quis&dapibus=tortor&dolor=id&vel=nulla&est=ultrices&donec=aliquet&odio=maecenas&justo=leo&sollicitudin=odio&ut=condimentum&suscipit=id&a=luctus&feugiat=nec&et=molestie&eros=sed&vestibulum=justo&ac=pellentesque&est=viverra&lacinia=pede&nisi=ac&venenatis=diam&tristique=cras&fusce=pellentesque&congue=volutpat&diam=dui&id=maecenas&ornare=tristique&imperdiet=est&sapien=et&urna=tempus&pretium=semper&nisl=est&ut=quam&volutpat=pharetra&sapien=magna&arcu=ac&sed=consequat&augue=metus&aliquam=sapien&erat=ut&volutpat=nunc&in=vestibulum&congue=ante&etiam=ipsum&justo=primis&etiam=in&pretium=faucibus&iaculis=orci&justo=luctus&in=et&hac=ultrices&habitasse=posuere&platea=cubilia&dictumst=curae&etiam=mauris&faucibus=viverra&cursus=diam&urna=vitae&ut=quam&tellus=suspendisse&nulla=potenti&ut=nullam",
  "phone": "221-657-9637"
}, {
  "id": 9,
  "first_name": "Chelsie",
  "last_name": "Illyes",
  "email": "cillyes8@nymag.com",
  "gender": "Polygender",
  "website": "http://yellowbook.com/enim.xml?cum=leo&sociis=maecenas&natoque=pulvinar&penatibus=lobortis&et=est&magnis=phasellus&dis=sit&parturient=amet&montes=erat&nascetur=nulla&ridiculus=tempus&mus=vivamus&vivamus=in&vestibulum=felis&sagittis=eu&sapien=sapien&cum=cursus&sociis=vestibulum&natoque=proin&penatibus=eu&et=mi&magnis=nulla&dis=ac&parturient=enim&montes=in&nascetur=tempor&ridiculus=turpis&mus=nec&etiam=euismod&vel=scelerisque&augue=quam&vestibulum=turpis&rutrum=adipiscing&rutrum=lorem&neque=vitae&aenean=mattis&auctor=nibh&gravida=ligula&sem=nec&praesent=sem&id=duis&massa=aliquam&id=convallis&nisl=nunc&venenatis=proin&lacinia=at&aenean=turpis&sit=a&amet=pede&justo=posuere&morbi=nonummy&ut=integer&odio=non&cras=velit&mi=donec&pede=diam&malesuada=neque&in=vestibulum&imperdiet=eget&et=vulputate&commodo=ut&vulputate=ultrices&justo=vel&in=augue&blandit=vestibulum&ultrices=ante&enim=ipsum&lorem=primis&ipsum=in&dolor=faucibus&sit=orci&amet=luctus&consectetuer=et&adipiscing=ultrices&elit=posuere&proin=cubilia&interdum=curae&mauris=donec&non=pharetra&ligula=magna&pellentesque=vestibulum&ultrices=aliquet&phasellus=ultrices&id=erat&sapien=tortor&in=sollicitudin&sapien=mi&iaculis=sit&congue=amet&vivamus=lobortis&metus=sapien",
  "phone": "697-440-8498"
}, {
  "id": 10,
  "first_name": "Lilli",
  "last_name": "Turfin",
  "email": "lturfin9@tinyurl.com",
  "gender": "Polygender",
  "website": "http://scribd.com/augue/vel.jsp?volutpat=neque&sapien=duis&arcu=bibendum&sed=morbi&augue=non&aliquam=quam&erat=nec&volutpat=dui&in=luctus&congue=rutrum&etiam=nulla&justo=tellus&etiam=in&pretium=sagittis&iaculis=dui&justo=vel&in=nisl&hac=duis&habitasse=ac&platea=nibh&dictumst=fusce&etiam=lacus&faucibus=purus&cursus=aliquet&urna=at&ut=feugiat&tellus=non&nulla=pretium&ut=quis",
  "phone": "650-450-9868"
}, {
  "id": 11,
  "first_name": "Karoline",
  "last_name": "Eliaz",
  "email": "keliaza@fastcompany.com",
  "gender": "Male",
  "website": "https://github.com/tempus/semper/est/quam/pharetra.jsp?vel=consectetuer&sem=eget&sed=rutrum&sagittis=at&nam=lorem&congue=integer&risus=tincidunt&semper=ante&porta=vel&volutpat=ipsum&quam=praesent&pede=blandit&lobortis=lacinia&ligula=erat&sit=vestibulum&amet=sed&eleifend=magna&pede=at&libero=nunc&quis=commodo&orci=placerat&nullam=praesent&molestie=blandit&nibh=nam&in=nulla&lectus=integer&pellentesque=pede&at=justo&nulla=lacinia&suspendisse=eget&potenti=tincidunt&cras=eget&in=tempus&purus=vel&eu=pede&magna=morbi&vulputate=porttitor&luctus=lorem&cum=id&sociis=ligula&natoque=suspendisse&penatibus=ornare&et=consequat&magnis=lectus&dis=in&parturient=est&montes=risus&nascetur=auctor&ridiculus=sed&mus=tristique&vivamus=in&vestibulum=tempus&sagittis=sit",
  "phone": "112-747-8217"
}, {
  "id": 12,
  "first_name": "Shayne",
  "last_name": "McClements",
  "email": "smcclementsb@oracle.com",
  "gender": "Polygender",
  "website": "http://google.de/velit/eu/est/congue.png?velit=mauris&id=lacinia&pretium=sapien&iaculis=quis&diam=libero&erat=nullam&fermentum=sit&justo=amet&nec=turpis&condimentum=elementum&neque=ligula&sapien=vehicula&placerat=consequat&ante=morbi&nulla=a&justo=ipsum&aliquam=integer&quis=a&turpis=nibh&eget=in&elit=quis&sodales=justo&scelerisque=maecenas&mauris=rhoncus&sit=aliquam&amet=lacus&eros=morbi&suspendisse=quis&accumsan=tortor&tortor=id&quis=nulla&turpis=ultrices&sed=aliquet&ante=maecenas&vivamus=leo&tortor=odio&duis=condimentum&mattis=id&egestas=luctus&metus=nec&aenean=molestie&fermentum=sed",
  "phone": "692-434-2088"
}, {
  "id": 13,
  "first_name": "Nessa",
  "last_name": "Merrydew",
  "email": "nmerrydewc@businessweek.com",
  "gender": "Bigender",
  "website": "http://prnewswire.com/mauris/viverra/diam/vitae/quam.html?nisi=vestibulum&at=ac&nibh=est&in=lacinia&hac=nisi&habitasse=venenatis&platea=tristique&dictumst=fusce&aliquam=congue&augue=diam&quam=id&sollicitudin=ornare&vitae=imperdiet&consectetuer=sapien&eget=urna&rutrum=pretium&at=nisl&lorem=ut&integer=volutpat&tincidunt=sapien&ante=arcu&vel=sed&ipsum=augue&praesent=aliquam&blandit=erat&lacinia=volutpat&erat=in&vestibulum=congue&sed=etiam&magna=justo&at=etiam&nunc=pretium&commodo=iaculis&placerat=justo&praesent=in&blandit=hac&nam=habitasse&nulla=platea&integer=dictumst&pede=etiam&justo=faucibus&lacinia=cursus&eget=urna&tincidunt=ut&eget=tellus&tempus=nulla&vel=ut&pede=erat&morbi=id&porttitor=mauris&lorem=vulputate&id=elementum&ligula=nullam&suspendisse=varius&ornare=nulla&consequat=facilisi&lectus=cras&in=non&est=velit&risus=nec&auctor=nisi&sed=vulputate&tristique=nonummy&in=maecenas&tempus=tincidunt&sit=lacus&amet=at&sem=velit&fusce=vivamus&consequat=vel&nulla=nulla&nisl=eget&nunc=eros",
  "phone": "519-893-9470"
}, {
  "id": 14,
  "first_name": "Matti",
  "last_name": "Kirckman",
  "email": "mkirckmand@moonfruit.com",
  "gender": "Agender",
  "website": "https://foxnews.com/dolor/morbi/vel/lectus/in/quam/fringilla.json?nunc=vehicula&donec=consequat&quis=morbi&orci=a&eget=ipsum&orci=integer&vehicula=a&condimentum=nibh&curabitur=in&in=quis&libero=justo&ut=maecenas&massa=rhoncus",
  "phone": "331-292-2509"
}, {
  "id": 15,
  "first_name": "Birgitta",
  "last_name": "Philippeaux",
  "email": "bphilippeauxe@chron.com",
  "gender": "Polygender",
  "website": "https://wikipedia.org/quis/turpis/sed/ante/vivamus.html?nulla=luctus&tempus=ultricies&vivamus=eu&in=nibh&felis=quisque&eu=id&sapien=justo&cursus=sit&vestibulum=amet&proin=sapien&eu=dignissim&mi=vestibulum&nulla=vestibulum&ac=ante&enim=ipsum&in=primis&tempor=in&turpis=faucibus&nec=orci&euismod=luctus&scelerisque=et&quam=ultrices&turpis=posuere&adipiscing=cubilia&lorem=curae&vitae=nulla&mattis=dapibus&nibh=dolor&ligula=vel&nec=est&sem=donec&duis=odio&aliquam=justo&convallis=sollicitudin&nunc=ut",
  "phone": "435-523-7055"
}, {
  "id": 16,
  "first_name": "Hildy",
  "last_name": "Boissieux",
  "email": "hboissieuxf@sciencedirect.com",
  "gender": "Male",
  "website": "https://discovery.com/felis/donec/semper/sapien/a/libero.aspx?vitae=nisl&consectetuer=aenean&eget=lectus&rutrum=pellentesque&at=eget&lorem=nunc&integer=donec&tincidunt=quis&ante=orci&vel=eget&ipsum=orci&praesent=vehicula&blandit=condimentum&lacinia=curabitur&erat=in&vestibulum=libero&sed=ut&magna=massa&at=volutpat&nunc=convallis&commodo=morbi&placerat=odio&praesent=odio&blandit=elementum&nam=eu&nulla=interdum&integer=eu&pede=tincidunt&justo=in",
  "phone": "503-580-2487"
}, {
  "id": 17,
  "first_name": "Sharl",
  "last_name": "Hullin",
  "email": "shulling@chronoengine.com",
  "gender": "Genderfluid",
  "website": "https://nhs.uk/luctus/rutrum.js?urna=vestibulum&ut=ante&tellus=ipsum&nulla=primis&ut=in&erat=faucibus&id=orci&mauris=luctus&vulputate=et&elementum=ultrices&nullam=posuere&varius=cubilia&nulla=curae&facilisi=duis&cras=faucibus&non=accumsan&velit=odio&nec=curabitur&nisi=convallis&vulputate=duis&nonummy=consequat&maecenas=dui&tincidunt=nec&lacus=nisi&at=volutpat&velit=eleifend&vivamus=donec&vel=ut&nulla=dolor&eget=morbi&eros=vel&elementum=lectus&pellentesque=in&quisque=quam&porta=fringilla&volutpat=rhoncus&erat=mauris&quisque=enim&erat=leo&eros=rhoncus&viverra=sed&eget=vestibulum&congue=sit&eget=amet&semper=cursus&rutrum=id&nulla=turpis&nunc=integer&purus=aliquet&phasellus=massa&in=id&felis=lobortis&donec=convallis&semper=tortor&sapien=risus&a=dapibus&libero=augue&nam=vel&dui=accumsan&proin=tellus&leo=nisi&odio=eu&porttitor=orci&id=mauris&consequat=lacinia&in=sapien&consequat=quis&ut=libero&nulla=nullam&sed=sit&accumsan=amet&felis=turpis&ut=elementum",
  "phone": "380-732-6174"
}, {
  "id": 18,
  "first_name": "Caprice",
  "last_name": "Lefwich",
  "email": "clefwichh@hostgator.com",
  "gender": "Female",
  "website": "https://yahoo.com/eget/eros/elementum/pellentesque/quisque.xml?convallis=convallis&nunc=nunc&proin=proin&at=at&turpis=turpis&a=a&pede=pede&posuere=posuere&nonummy=nonummy&integer=integer&non=non&velit=velit&donec=donec&diam=diam&neque=neque&vestibulum=vestibulum&eget=eget&vulputate=vulputate&ut=ut&ultrices=ultrices&vel=vel&augue=augue&vestibulum=vestibulum&ante=ante&ipsum=ipsum&primis=primis&in=in&faucibus=faucibus&orci=orci&luctus=luctus&et=et&ultrices=ultrices&posuere=posuere&cubilia=cubilia&curae=curae&donec=donec&pharetra=pharetra&magna=magna&vestibulum=vestibulum&aliquet=aliquet&ultrices=ultrices&erat=erat&tortor=tortor&sollicitudin=sollicitudin&mi=mi&sit=sit&amet=amet&lobortis=lobortis&sapien=sapien&sapien=sapien&non=non&mi=mi&integer=integer&ac=ac&neque=neque&duis=duis&bibendum=bibendum&morbi=morbi&non=non&quam=quam&nec=nec&dui=dui&luctus=luctus&rutrum=rutrum&nulla=nulla&tellus=tellus&in=in&sagittis=sagittis&dui=dui&vel=vel&nisl=nisl&duis=duis&ac=ac&nibh=nibh&fusce=fusce&lacus=lacus&purus=purus&aliquet=aliquet&at=at&feugiat=feugiat&non=non&pretium=pretium&quis=quis&lectus=lectus",
  "phone": "483-993-2843"
}, {
  "id": 19,
  "first_name": "Vonnie",
  "last_name": "Bertot",
  "email": "vbertoti@google.pl",
  "gender": "Agender",
  "website": "https://engadget.com/accumsan/felis/ut.xml?mauris=ante&laoreet=ipsum&ut=primis&rhoncus=in&aliquet=faucibus&pulvinar=orci&sed=luctus&nisl=et&nunc=ultrices&rhoncus=posuere&dui=cubilia&vel=curae&sem=mauris&sed=viverra&sagittis=diam&nam=vitae&congue=quam&risus=suspendisse&semper=potenti&porta=nullam&volutpat=porttitor&quam=lacus&pede=at&lobortis=turpis&ligula=donec&sit=posuere&amet=metus&eleifend=vitae&pede=ipsum&libero=aliquam&quis=non&orci=mauris&nullam=morbi&molestie=non&nibh=lectus&in=aliquam&lectus=sit&pellentesque=amet&at=diam&nulla=in&suspendisse=magna&potenti=bibendum&cras=imperdiet&in=nullam&purus=orci&eu=pede&magna=venenatis&vulputate=non&luctus=sodales&cum=sed&sociis=tincidunt&natoque=eu&penatibus=felis&et=fusce&magnis=posuere&dis=felis&parturient=sed&montes=lacus&nascetur=morbi&ridiculus=sem&mus=mauris&vivamus=laoreet&vestibulum=ut&sagittis=rhoncus&sapien=aliquet&cum=pulvinar&sociis=sed&natoque=nisl&penatibus=nunc&et=rhoncus&magnis=dui&dis=vel&parturient=sem&montes=sed&nascetur=sagittis&ridiculus=nam&mus=congue&etiam=risus&vel=semper",
  "phone": "514-982-1792"
}, {
  "id": 20,
  "first_name": "Aubrey",
  "last_name": "Pales",
  "email": "apalesj@state.tx.us",
  "gender": "Agender",
  "website": "https://cornell.edu/donec/posuere/metus/vitae.xml?vestibulum=fringilla&rutrum=rhoncus&rutrum=mauris&neque=enim&aenean=leo&auctor=rhoncus&gravida=sed&sem=vestibulum&praesent=sit&id=amet&massa=cursus&id=id&nisl=turpis&venenatis=integer&lacinia=aliquet&aenean=massa&sit=id&amet=lobortis&justo=convallis&morbi=tortor&ut=risus&odio=dapibus&cras=augue&mi=vel&pede=accumsan&malesuada=tellus&in=nisi&imperdiet=eu&et=orci&commodo=mauris&vulputate=lacinia&justo=sapien&in=quis&blandit=libero&ultrices=nullam&enim=sit&lorem=amet&ipsum=turpis&dolor=elementum&sit=ligula&amet=vehicula&consectetuer=consequat&adipiscing=morbi&elit=a&proin=ipsum&interdum=integer&mauris=a&non=nibh&ligula=in&pellentesque=quis&ultrices=justo&phasellus=maecenas&id=rhoncus&sapien=aliquam&in=lacus&sapien=morbi&iaculis=quis&congue=tortor&vivamus=id&metus=nulla&arcu=ultrices&adipiscing=aliquet&molestie=maecenas&hendrerit=leo&at=odio&vulputate=condimentum&vitae=id&nisl=luctus&aenean=nec&lectus=molestie&pellentesque=sed&eget=justo&nunc=pellentesque&donec=viverra&quis=pede&orci=ac&eget=diam&orci=cras&vehicula=pellentesque&condimentum=volutpat&curabitur=dui&in=maecenas&libero=tristique&ut=est&massa=et&volutpat=tempus&convallis=semper&morbi=est&odio=quam&odio=pharetra&elementum=magna&eu=ac&interdum=consequat&eu=metus&tincidunt=sapien&in=ut&leo=nunc&maecenas=vestibulum&pulvinar=ante&lobortis=ipsum",
  "phone": "847-924-1853"
}]